%YAML 1.1
%TAG !u! tag:unity3d.com,2011:
--- !u!114 &11400000
MonoBehaviour:
  m_ObjectHideFlags: 0
  m_CorrespondingSourceObject: {fileID: 0}
  m_PrefabInstance: {fileID: 0}
  m_PrefabAsset: {fileID: 0}
  m_GameObject: {fileID: 0}
  m_Enabled: 1
  m_EditorHideFlags: 0
  m_Script: {fileID: 11500000, guid: c258a28b44506ab4f9d3f42e4e7aeaf5, type: 3}
  m_Name: "Altera\xE7\xE3oRela\xE7\xE3oColega"
  m_EditorClassIdentifier: 
  index: 4
  buttonName: "Altera\xE7\xE3o Rela\xE7\xE3o Com Quem Vive"
  globalState: 2
  nextchapter: 0
  sentences:
  - "\nProfissional de psicologia:\r\n -E ao longo do tempo? Houve alguma altera\xE7\xE3o
    na rela\xE7\xE3o com a sua colega de casa? \r\n\r\n\nCliente:\r\n -Bem, n\xE3o
    muito, tenho \xE9 estado bastante ocupada\u2026 Ent\xE3o, muitas vezes, falo
    uns cinco minutos com ela na cozinha ou na sala e acabo logo por ir para o quarto
    trabalhar. At\xE9 porque me distraio facilmente com ruido ent\xE3o prefiro trabalhar
    num s\xEDtio sossegado. Mas pronto, houve uma noite em que estava a tentar apressar
    as coisas na cozinha e acho que ela percebeu que estava bastante stressada e
    fal\xE1mos mais uma noite destas sobre o que estava a sentir. Foi mesmo bom.\n\n\n"
  - 
  - 
  - 
  - 
  - 
  - 
  - 
  - 
  - 
  nextIndex: 0
  targetIndex: 1
  trustAmount: 0
  isListenButtonActivated: 0
  isParafraseActivated: 0
  isQuestionamenteExplorationActivated: 0
  isRapportBuildingActivated: 0
  isEmpatiaActivated: 0
  isReflexionActivated: 0
  isFocoActivated: 0
  isClarificationActivated: 0
  isSummarizedActivated: 0
  hasAnswer: 1
  isEnd: 0
