%YAML 1.1
%TAG !u! tag:unity3d.com,2011:
--- !u!114 &11400000
MonoBehaviour:
  m_ObjectHideFlags: 0
  m_CorrespondingSourceObject: {fileID: 0}
  m_PrefabInstance: {fileID: 0}
  m_PrefabAsset: {fileID: 0}
  m_GameObject: {fileID: 0}
  m_Enabled: 1
  m_EditorHideFlags: 0
  m_Script: {fileID: 11500000, guid: c258a28b44506ab4f9d3f42e4e7aeaf5, type: 3}
  m_Name: AlcooEOutrasSubstancias
  m_EditorClassIdentifier: 
  index: 23
  buttonName: "\xC1lcool e outras subst\xE2ncias"
  globalState: 0
  nextchapter: 0
  sentences:
  - "\nProfissional de psicologia:\r\n- Como descreve os seus h\xE1bitos de ingest\xE3o
    de \xE1lcool e/ou outras subst\xE2ncias (tabaco, drogas)?\r\n\r\n\nCliente:\r\n-
    Nunca tive assim o h\xE1bito de beber bebidas alco\xF3licas, porque nunca fui
    muito disso. Se calhar numa festa de anivers\xE1rio bebo um copo de sangria,
    mas nunca ao ponto de ficar alterada, e em rela\xE7\xE3o a outras coisas, nem
    sequer cheguei ao ponto de experimentar.\n\n"
  - 
  - 
  - 
  - 
  - 
  - 
  - 
  - 
  - 
  nextIndex: 0
  targetIndex: 1
  trustAmount: 0
  isListenButtonActivated: 0
  isParafraseActivated: 0
  isQuestionamenteExplorationActivated: 0
  isRapportBuildingActivated: 0
  isEmpatiaActivated: 0
  isReflexionActivated: 0
  isFocoActivated: 0
  isClarificationActivated: 0
  isSummarizedActivated: 0
  hasAnswer: 1
  isEnd: 0
