%YAML 1.1
%TAG !u! tag:unity3d.com,2011:
--- !u!114 &11400000
MonoBehaviour:
  m_ObjectHideFlags: 0
  m_CorrespondingSourceObject: {fileID: 0}
  m_PrefabInstance: {fileID: 0}
  m_PrefabAsset: {fileID: 0}
  m_GameObject: {fileID: 0}
  m_Enabled: 1
  m_EditorHideFlags: 0
  m_Script: {fileID: 11500000, guid: c258a28b44506ab4f9d3f42e4e7aeaf5, type: 3}
  m_Name: SaudeFisicaMental
  m_EditorClassIdentifier: 
  index: 23
  buttonName: "Sa\xFAde atual "
  globalState: 0
  nextchapter: 0
  sentences:
  - "\nProfissional de psicologia:\r\n- Vamos explorar um pouco a \xE1rea da sa\xFAde.
    Como est\xE1 em termos de sa\xFAde (f\xEDsica e mental) atualmente?\r\n\r\n\nCliente:\r\n-
    Habitualmente penso que sou bastante saud\xE1vel, acho que tenho bons h\xE1bitos,
    e ainda fa\xE7o dan\xE7a.\n\n\n"
  - 
  - 
  - 
  - 
  - 
  - 
  - 
  - 
  - 
  nextIndex: 0
  targetIndex: 1
  trustAmount: 0
  isListenButtonActivated: 0
  isParafraseActivated: 0
  isQuestionamenteExplorationActivated: 0
  isRapportBuildingActivated: 0
  isEmpatiaActivated: 0
  isReflexionActivated: 0
  isFocoActivated: 0
  isClarificationActivated: 0
  isSummarizedActivated: 0
  hasAnswer: 1
  isEnd: 0
