%YAML 1.1
%TAG !u! tag:unity3d.com,2011:
--- !u!114 &11400000
MonoBehaviour:
  m_ObjectHideFlags: 0
  m_CorrespondingSourceObject: {fileID: 0}
  m_PrefabInstance: {fileID: 0}
  m_PrefabAsset: {fileID: 0}
  m_GameObject: {fileID: 0}
  m_Enabled: 1
  m_EditorHideFlags: 0
  m_Script: {fileID: 11500000, guid: c258a28b44506ab4f9d3f42e4e7aeaf5, type: 3}
  m_Name: AreaVidaConsideraImportante
  m_EditorClassIdentifier: 
  index: 12
  buttonName: "\xC1rea da vida  priorit\xE1rio"
  globalState: 11
  nextchapter: 0
  sentences:
  - "\nProfissional de psicologia:\r\n- Das v\xE1rias \xE1reas da vida que me falou
    (familiar, profissional, relacional, etc), quais as que considera como mais importantes/priorit\xE1rias
    na sua vida?\r\n\n\nCliente:\r\n- Eu acho todas importantes na verdade\u2026
    Tanto a minha vida profissional, como a minha vida amorosa, como os meus amigos
    e a minha fam\xEDlia, n\xE3o me parece que haja apenas uma que \xE9 mais importante,
    mas \xE9 verdade que se falar sobre este momento encontro-me a tentar concentrar-me
    mais no meu trabalho por causa desta oportunidade, por isso se calhar neste momento
    \xE9.\n\n"
  - 
  - 
  - 
  - 
  - 
  - 
  - 
  - 
  - 
  nextIndex: 0
  targetIndex: 1
  trustAmount: 0
  isListenButtonActivated: 0
  isParafraseActivated: 0
  isQuestionamenteExplorationActivated: 0
  isRapportBuildingActivated: 0
  isEmpatiaActivated: 0
  isReflexionActivated: 0
  isFocoActivated: 0
  isClarificationActivated: 0
  isSummarizedActivated: 0
  hasAnswer: 1
  isEnd: 0
