%YAML 1.1
%TAG !u! tag:unity3d.com,2011:
--- !u!114 &11400000
MonoBehaviour:
  m_ObjectHideFlags: 0
  m_CorrespondingSourceObject: {fileID: 0}
  m_PrefabInstance: {fileID: 0}
  m_PrefabAsset: {fileID: 0}
  m_GameObject: {fileID: 0}
  m_Enabled: 1
  m_EditorHideFlags: 0
  m_Script: {fileID: 11500000, guid: c258a28b44506ab4f9d3f42e4e7aeaf5, type: 3}
  m_Name: "Problema de maior preocupa\xE7\xE3o"
  m_EditorClassIdentifier: 
  index: 3
  buttonName: "Problema/quest\xE3o  de maior preocupa\xE7\xE3o"
  globalState: 0
  nextchapter: 0
  sentences:
  - "\nProfissional de psicologia:\r\n-Fale-me, ent\xE3o, um bocadinho sobre as quest\xF5es
    que mais a preocupam e que considera que precisa de ajuda.\r\n\r\n\nCliente:\r\n-Esta
    mudan\xE7a de cidade \xE9 importante para mim e gostaria de poder estar em Lisboa
    e trabalhar aqui e, ent\xE3o, acho que \xE9 mesmo o stresse e a frustra\xE7\xE3o
    que n\xE3o me deixam concentrar no trabalho em que preciso de ajuda.\n\n\n\n"
  - 
  - "\nProfissional de psicologia:\n- O stress e a frustra\xE7\xE3o que sente que
    est\xE3o a interferir no seu trabalho. \n\n\n\n"
  - 
  - 
  - 
  - 
  - 
  - 
  - 
  nextIndex: 0
  targetIndex: 1
  isTargetIndexRelevant: 0
  isButtonExceptiontoOrderRelevant: 0
  currentIndexRelevant: 2
  isListenButtonActivated: 1
  isParafraseActivated: 0
  isQuestionamenteExplorationActivated: 0
  isRapportBuildingActivated: 0
  isEmpatiaActivated: 0
  isReflexionActivated: 0
  isFocoActivated: 0
  isClarificationActivated: 0
  isSummarizedActivated: 0
  hasAnswer: 1
  isEnd: 0
