%YAML 1.1
%TAG !u! tag:unity3d.com,2011:
--- !u!114 &11400000
MonoBehaviour:
  m_ObjectHideFlags: 0
  m_CorrespondingSourceObject: {fileID: 0}
  m_PrefabInstance: {fileID: 0}
  m_PrefabAsset: {fileID: 0}
  m_GameObject: {fileID: 0}
  m_Enabled: 1
  m_EditorHideFlags: 0
  m_Script: {fileID: 11500000, guid: c258a28b44506ab4f9d3f42e4e7aeaf5, type: 3}
  m_Name: "Concretiza\xE7\xE3oDosSeusObjetivos"
  m_EditorClassIdentifier: 
  index: 9
  buttonName: "Avalia\xE7\xE3o da concretiza\xE7\xE3o objetivos"
  globalState: 7
  nextchapter: 0
  sentences:
  - "\nProfissional de psicologia:\r\n- Como avalia o grau de concretiza\xE7\xE3o
    dos seus objetivos?\r\n\n\nCliente:\r\nPronto, pensei que eu era muito boa, mas
    agora j\xE1 n\xE3o sei bem.\n\n\n"
  - 
  - 
  - 
  - 
  - '





'
  - "\nProfissional de pesicologia: \n-Neste momento, as dificultes que est\xE1 a
    ter est\xE3o a faz\xEA-la duvidar  das suas capacidades e compet\xEAncias.\r\n\n\nCliente:\n-
    Sim... completamente\r\n\n\n"
  - 
  - 
  - 
  nextIndex: 0
  targetIndex: 1
  trustAmount: 0
  isListenButtonActivated: 0
  isParafraseActivated: 0
  isQuestionamenteExplorationActivated: 0
  isRapportBuildingActivated: 0
  isEmpatiaActivated: 0
  isReflexionActivated: 1
  isFocoActivated: 0
  isClarificationActivated: 0
  isSummarizedActivated: 0
  hasAnswer: 1
  isEnd: 0
