%YAML 1.1
%TAG !u! tag:unity3d.com,2011:
--- !u!114 &11400000
MonoBehaviour:
  m_ObjectHideFlags: 0
  m_CorrespondingSourceObject: {fileID: 0}
  m_PrefabInstance: {fileID: 0}
  m_PrefabAsset: {fileID: 0}
  m_GameObject: {fileID: 0}
  m_Enabled: 1
  m_EditorHideFlags: 0
  m_Script: {fileID: 11500000, guid: c258a28b44506ab4f9d3f42e4e7aeaf5, type: 3}
  m_Name: "Rela\xE7\xE3oPessoasReferidas"
  m_EditorClassIdentifier: 
  index: 3
  buttonName: "Rela\xE7\xF5es com as pessoas"
  globalState: 1
  nextchapter: 0
  sentences:
  - "\nProfissional de psicologia:\r\n- Como era a sua rela\xE7\xE3o com as pessoas
    de que me falou? (listar as pessoas que o cliente referiu)\r\n\r\n\nCliente:\r\n-
    A minha fam\xEDlia \xE9 bastante pr\xF3xima e sempre nos demos todos muito bem,
    tanto que era muito raro haver discuss\xF5es em casa. A minha m\xE3e sempre achei
    que ela era muito compreensiva comigo, quando era pequena, e sempre me senti
    \xE0 vontade para falar com ela sobre tudo. Eu acho que a rela\xE7\xE3o que tenho
    com o meu pai era muito boa enquanto era mais nova. Ele foi muito brincalh\xE3o
    comigo e com o meu irm\xE3o, e imagine que se algum de n\xF3s nos mago\xE1vamos,
    ele estava sempre l\xE1. Fazia-me sentir melhor e segura quando era crian\xE7a
    e, mesmo quando era adolescente, apesar de n\xE3o brincarmos jogos de crian\xE7a,
    sentia que estava sempre presente quando eu precisava. Fomos bastante pr\xF3ximos
    o que \xE9 muito bom, e nunca temos discuss\xF5es s\xE9rias. O meu irm\xE3o \xE9
    como um modelo para mim. Sempre o admirei quando era pequenina e sempre tivemos
    uma boa rela\xE7\xE3o.\n\n"
  - 
  - 
  - 
  - 
  - 
  - 
  - 
  - 
  - 
  nextIndex: 0
  targetIndex: 1
  trustAmount: 0
  isListenButtonActivated: 0
  isParafraseActivated: 0
  isQuestionamenteExplorationActivated: 0
  isRapportBuildingActivated: 0
  isEmpatiaActivated: 0
  isReflexionActivated: 0
  isFocoActivated: 0
  isClarificationActivated: 0
  isSummarizedActivated: 0
  hasAnswer: 1
  isEnd: 0
