%YAML 1.1
%TAG !u! tag:unity3d.com,2011:
--- !u!114 &11400000
MonoBehaviour:
  m_ObjectHideFlags: 0
  m_CorrespondingSourceObject: {fileID: 0}
  m_PrefabInstance: {fileID: 0}
  m_PrefabAsset: {fileID: 0}
  m_GameObject: {fileID: 0}
  m_Enabled: 1
  m_EditorHideFlags: 0
  m_Script: {fileID: 11500000, guid: c258a28b44506ab4f9d3f42e4e7aeaf5, type: 3}
  m_Name: "To2\xBANivel"
  m_EditorClassIdentifier: 
  index: 4
  buttonName: "Voltar a \xC1reas problem\xE1ticas"
  globalState: 0
  nextchapter: 0
  sentences:
  - 
  - 
  - 
  - 
  - 
  - 
  - 
  - 
  - 
  - 
  nextIndex: 1
  targetIndex: 3
  isTargetIndexRelevant: 1
  isButtonExceptiontoOrderRelevant: 1
  currentIndexRelevant: 0
  isListenButtonActivated: 0
  isParafraseActivated: 0
  isQuestionamenteExplorationActivated: 0
  isRapportBuildingActivated: 0
  isEmpatiaActivated: 0
  isReflexionActivated: 0
  isFocoActivated: 0
  isClarificationActivated: 0
  isSummarizedActivated: 0
  hasAnswer: 0
  isEnd: 0
