%YAML 1.1
%TAG !u! tag:unity3d.com,2011:
--- !u!114 &11400000
MonoBehaviour:
  m_ObjectHideFlags: 0
  m_CorrespondingSourceObject: {fileID: 0}
  m_PrefabInstance: {fileID: 0}
  m_PrefabAsset: {fileID: 0}
  m_GameObject: {fileID: 0}
  m_Enabled: 1
  m_EditorHideFlags: 0
  m_Script: {fileID: 11500000, guid: c258a28b44506ab4f9d3f42e4e7aeaf5, type: 3}
  m_Name: AspetosEnsinoSuperior
  m_EditorClassIdentifier: 
  index: 21
  buttonName: 'Ensino '
  globalState: 0
  nextchapter: 0
  sentences:
  - "\nProfissional de psicologia:\r\n-E quanto ao ensino superior? Quais os aspetos
    mais significativos que se lembra do ensino superior?\r\n\r\n\nCliente:\r\n-Hmm\u2026
    bem\u2026 eu basicamente lembro-me que estive muito empenhada em tentar encontrar
    um curso de que gostasse e a parte mais significativa se calhar foi mesmo que
    descobri que o curso de marketing, que me deixou curiosa na altura. Quando comecei
    as aulas, as aulas em si adorava, mas n\xE3o fiz assim amigos na faculdade.\n\n"
  - '

'
  - 
  - 
  - 
  - 
  - 
  - 
  - 
  - 
  nextIndex: 0
  targetIndex: 1
  trustAmount: 0
  isListenButtonActivated: 0
  isParafraseActivated: 0
  isQuestionamenteExplorationActivated: 0
  isRapportBuildingActivated: 0
  isEmpatiaActivated: 0
  isReflexionActivated: 0
  isFocoActivated: 0
  isClarificationActivated: 0
  isSummarizedActivated: 0
  hasAnswer: 1
  isEnd: 0
